<?xml version="1.0"?>
<svg xmlns="http://www.w3.org/2000/svg" xmlns:xlink="http://www.w3.org/1999/xlink" version="1.1" id="Layer_1" x="0px" y="0px" viewBox="0 0 512 512" style="enable-background:new 0 0 512 512;" xml:space="preserve" width="512px" height="512px"><g><g>
	<g>
		<path d="M119.875,302.399c-42.306,0-76.72,34.414-76.72,76.72s34.414,76.72,76.72,76.72s76.72-34.414,76.72-76.72    S162.181,302.399,119.875,302.399z M119.875,438.79c-32.899,0-59.671-26.772-59.671-59.671s26.772-59.671,59.671-59.671    c32.899,0,59.671,26.772,59.671,59.671S152.774,438.79,119.875,438.79z" data-original="#000000" class="active-path" data-old_color="#000000" fill="#FFFFFF"/>
	</g>
</g><g>
	<g>
		<path d="M392.658,148.959c-42.306,0-76.72,34.414-76.72,76.72s34.414,76.72,76.72,76.72c42.306,0,76.72-34.414,76.72-76.72    S434.964,148.959,392.658,148.959z M392.658,285.35c-32.899,0-59.671-26.772-59.671-59.671s26.772-59.671,59.671-59.671    c32.899,0,59.671,26.772,59.671,59.671S425.557,285.35,392.658,285.35z" data-original="#000000" class="active-path" data-old_color="#000000" fill="#FFFFFF"/>
	</g>
</g><g>
	<g>
		<path d="M392.658,106.337c-13.759,0-26.926,2.46-39.236,6.762l-10.527-15.79c0.135-0.131,0.298-0.221,0.431-0.354    c6.435-6.427,9.981-14.984,9.981-24.1c0.008-9.116-3.538-17.682-9.981-24.125l-24.108-24.108    c-11.988-11.971-30.664-13.049-43.967-3.469c-27.888-13.13-50.614-6.262-60.71-1.64c-13.074-7.744-30.216-6.117-41.455,5.109    l-24.1,24.108c-10.91,10.909-12.714,27.367-5.725,40.293l-28.383,34.814c-16.681,2.212-30.167,16.368-30.167,33.646v34.098    c0,15.844,12.787,29.076,25.573,32.887v35.74C48.483,264.609,0,316.189,0,379.119c0,65.806,53.802,119.342,119.609,119.342    s118.943-53.536,118.943-119.342c0-62.93-47.284-114.51-111.217-118.912v-35.74c14.918-3.81,25.573-17.043,25.573-32.887v-34.098    c0-13.444-7.351-24.982-18.678-30.531l20.495-25.284c5.521,3.465,11.933,5.259,18.237,5.259c8.732-0.008,17.532-3.33,24.175-9.973    l24.141-24.108c10.822-10.822,12.695-27.114,5.898-39.992c8.081-2.522,21.132-4.289,36.872,1.952    c-1.942,4.329-3.032,9.024-3.032,13.915c-0.008,9.116,3.54,17.682,9.983,24.125l24.108,23.808    c6.427,6.427,14.986,9.682,24.094,9.682c0.008,0,0.017,0,0.025,0c3.012,0,5.917-0.223,8.749-0.974l9.526,14.437    c-38.096,19.956-64.185,59.898-64.185,105.804c0,65.807,53.536,119.38,119.342,119.38S512,291.467,512,225.66    C512,159.854,458.464,106.337,392.658,106.337z M222.169,379.119c0,56.408-45.885,102.293-102.293,102.293    c-56.408,0-102.293-45.885-102.293-102.293c0-56.408,45.886-102.293,102.293-102.293    C176.283,276.826,222.169,322.711,222.169,379.119z M135.858,157.483v34.098c0,9.399-7.65,17.049-17.049,17.049    s-17.049-7.65-17.049-17.049v-34.098c0-9.399,7.65-17.049,17.049-17.049S135.858,148.085,135.858,157.483z M209.257,60.792    L185.149,84.9c-6.512,6.502-16.987,6.581-23.665,0.366c-0.529-0.989-1.253-1.892-2.183-2.639c-0.065-0.05-0.144-0.058-0.208-0.108    c-4.591-6.641-3.962-15.825,1.948-21.736l24.1-24.108c3.322-3.322,7.692-4.986,12.063-4.986c3.638,0,7.246,1.228,10.283,3.54    c0.593,0.649,1.209,1.238,1.946,1.663C215.886,43.558,215.842,54.208,209.257,60.792z M331.272,84.599    c-3.213,3.213-7.492,4.689-12.046,4.689c-0.008,0-0.008,0-0.008,0c-4.562,0-8.841-1.473-12.054-4.687l-24.108-23.958    c-3.222-3.222-4.986-7.426-4.986-11.988c0-4.562,1.773-8.803,4.986-12.017c3.322-3.322,7.684-4.959,12.054-4.959    c4.362,0,8.732,1.667,12.054,4.989l24.108,24.112c3.222,3.222,4.987,7.503,4.987,12.065    C336.258,77.406,334.485,81.385,331.272,84.599z M392.658,327.972c-56.408,0-102.293-45.885-102.293-102.293    c0-56.408,45.886-102.293,102.293-102.293c56.408,0,102.293,45.886,102.293,102.293    C494.951,282.087,449.066,327.972,392.658,327.972z" data-original="#000000" class="active-path" data-old_color="#000000" fill="#FFFFFF"/>
	</g>
</g></g> </svg>
