<?xml version="1.0" encoding="UTF-8" standalone="no"?>
<svg
   xmlns:dc="http://purl.org/dc/elements/1.1/"
   xmlns:cc="http://creativecommons.org/ns#"
   xmlns:rdf="http://www.w3.org/1999/02/22-rdf-syntax-ns#"
   xmlns:svg="http://www.w3.org/2000/svg"
   xmlns="http://www.w3.org/2000/svg"
   xmlns:sodipodi="http://sodipodi.sourceforge.net/DTD/sodipodi-0.dtd"
   xmlns:inkscape="http://www.inkscape.org/namespaces/inkscape"
   version="1.1"
   id="Capa_1"
   x="0px"
   y="0px"
   width="512px"
   height="512px"
   viewBox="0 0 451.846 451.847"
   style="enable-background:new 0 0 451.846 451.847;"
   xml:space="preserve"
   sodipodi:docname="rgrey.svg"
   inkscape:version="0.92.4 (5da689c313, 2019-01-14)"><metadata
   id="metadata13"><rdf:RDF><cc:Work
       rdf:about=""><dc:format>image/svg+xml</dc:format><dc:type
         rdf:resource="http://purl.org/dc/dcmitype/StillImage" /><dc:title></dc:title></cc:Work></rdf:RDF></metadata><defs
   id="defs11" /><sodipodi:namedview
   pagecolor="#ffffff"
   bordercolor="#666666"
   borderopacity="1"
   objecttolerance="10"
   gridtolerance="10"
   guidetolerance="10"
   inkscape:pageopacity="0"
   inkscape:pageshadow="2"
   inkscape:window-width="1920"
   inkscape:window-height="1001"
   id="namedview9"
   showgrid="false"
   inkscape:zoom="0.921875"
   inkscape:cx="-26.194582"
   inkscape:cy="325.91953"
   inkscape:window-x="-9"
   inkscape:window-y="1116"
   inkscape:window-maximized="1"
   inkscape:current-layer="g6" /><g
   transform="matrix(1 0 0 1 0 0)"
   id="g6"><path
     style="opacity:1;fill:#7b7b7b;fill-opacity:1;fill-rule:nonzero;stroke:none;stroke-width:1.62816882;stroke-miterlimit:4;stroke-dasharray:none;stroke-dashoffset:0;stroke-opacity:1;paint-order:markers fill stroke"
     d="m 353.61804,230.49419 c -0.58008,3.445 -1.82866,6.97469 -3.68489,10.41708 -1.47079,2.7276 -13.81431,15.25794 -100.10366,101.61878 -54.1343,54.17916 -99.82605,99.64285 -101.53723,101.03044 -6.1775,5.0093 -11.17901,6.9744 -18.71394,7.35273 -9.93583,0.49888 -17.4295,-2.39039 -24.37705,-9.39885 -6.502805,-6.55981 -9.061009,-12.85302 -9.074952,-22.32452 -0.0088,-5.79125 0.775085,-9.15431 3.397159,-14.57977 l 1.966283,-4.06854 87.84909,-87.75122 87.8491,-87.75123 -87.58707,-87.67455 C 103.56932,51.247066 101.9792,49.621997 100.06516,45.860785 91.63525,29.295474 97.805379,10.105285 114.06868,2.3074117 c 5.41726,-2.59744946 8.39271,-3.28798993 14.12022,-3.27698498 7.47493,0.014385 14.62265,2.51339888 19.9141,6.96252098 1.34383,1.1299087 46.70761,46.4253643 100.8084,100.6565823 65.22828,65.38553 98.92242,99.48906 100.01953,101.23479 4.3072,6.85367 5.9808,14.92687 4.68711,22.60987 z"
     id="path820"
     inkscape:connector-curvature="0" /></g> </svg>